…
Notes: Lets figure out the ratios of the number of friends that females have compared to males.

Wide and Long Format

Notes: We will be changing our data format from long to wide. The data is currently in long format because each age is listed twice - once for male and again for female. This will be changed to listing the age and gender just once and entering the mean value in another column.

Reshaping Data

Notes: Lets reshape the data from long to wide using the tidyr package.

library(tidyr)

spread(subset(pf.fc_by_age_gender, select=c(age, gender, mean_friends)), gender, mean_friends)

## Source: local data frame [101 x 3]
## Groups: age [101]
## 
##      age   female     male
## *  <int>    <dbl>    <dbl>
## 1     13 259.1606 102.1340
## 2     14 362.4286 164.1456
## 3     15 538.6813 200.6658
## 4     16 519.5145 239.6748
## 5     17 538.9943 236.4924
## 6     18 481.9794 233.9183
## 7     19 470.8007 254.5841
## 8     20 380.8244 225.5921
## 9     21 307.1064 195.3208
## 10    22 251.9152 187.2532
## # ... with 91 more rows
…
